<?xml version="1.0" encoding="UTF-8"?>
<svg width="720px" height="937px" viewBox="0 0 720 937" version="1.1" xmlns="http://www.w3.org/2000/svg" xmlns:xlink="http://www.w3.org/1999/xlink">
    <!-- Generator: Sketch 51.2 (57519) - http://www.bohemiancoding.com/sketch -->
    <title>Group 3</title>
    <desc>Created with Sketch.</desc>
    <defs></defs>
    <g id="Page-1" stroke="none" stroke-width="1" fill="none" fill-rule="evenodd">
        <g id="Lining-System" transform="translate(-720.000000, -2317.000000)">
            <g id="Diameters" transform="translate(0.000000, 2317.000000)">
                <g id="bg">
                    <g id="Group-3" transform="translate(720.000000, -85.000000)">
                        <circle id="Oval-3" stroke="#AACD72" stroke-width="80" cx="699.5" cy="699.5" r="577.5"></circle>
                        <circle id="Oval-3-Copy" stroke="#00372A" stroke-width="100" cx="699.5" cy="699.5" r="649.5"></circle>
                    </g>
                </g>
            </g>
        </g>
    </g>
</svg>