<?xml version="1.0" encoding="UTF-8"?>
<svg width="50px" height="41px" viewBox="0 0 50 41" version="1.1" xmlns="http://www.w3.org/2000/svg" xmlns:xlink="http://www.w3.org/1999/xlink">
    <!-- Generator: Sketch 51.2 (57519) - http://www.bohemiancoding.com/sketch -->
    <title>Fill 1 Copy 2</title>
    <desc>Created with Sketch.</desc>
    <defs></defs>
    <g id="Page-1" stroke="none" stroke-width="1" fill="none" fill-rule="evenodd">
        <g id="Lining-System" transform="translate(-1285.000000, -3827.000000)" fill="#AACD72">
            <g id="lining-system-slider" transform="translate(0.000000, 3090.000000)">
                <path d="M1334.24783,755.459625 L1317.58127,737.867145 C1316.64517,736.928262 1314.6387,736.605116 1313.54611,737.643998 C1312.45075,738.682881 1312.45816,740.65509 1313.55908,741.686565 L1325.77011,754.592038 L1287.77776,754.592038 C1286.24444,754.592038 1285,755.835548 1285,757.369797 C1285,758.904047 1286.24444,760.146631 1287.77776,760.146631 L1325.77011,760.146631 L1313.55908,773.052104 C1312.45816,774.083579 1312.38501,776.128936 1313.54611,777.093745 C1314.6174,777.985406 1316.60813,778.024294 1317.58127,776.871524 L1334.24783,759.279044 C1334.95616,758.567938 1335.50801,756.699431 1334.24783,755.459625" id="Fill-1-Copy-2"></path>
            </g>
        </g>
    </g>
</svg>